{
"rooms": [
{ "id": 1, "name": "Hallway", "north": 2, "east":7, "objects": [] },
{ "id": 2, "name": "Dining Room", "north": 5, "south": 1, "west": 3, "east": 4, "objects": [] },
{ "id": 3, "name": "Kitchen","east":2, "objects": [ { "name": "Knife"} ] },
{ "id": 4, "name": "Sun Room","west":2, "north":6, "south":7, "objects": [] },
{ "id": 5, "name": "Bedroom","south":2, "east":6, "objects": [{"name": "Pillow" }] },
{ "id": 6, "name": "Bathroom","west":5, "south":4, "east":8, "objects": [] },
{ "id": 7, "name": "Living room","west":1, "north":4, "east":10,"south":11, "objects": [] },
{ "id": 8, "name": "joy room","west":6,"east":9, "objects": [] },
{ "id": 9, "name": "Blue room","west":8, "objects": [{"name": "Potted Plant" }] },
{ "id": 10, "name": "Dark Room","west":7, "objects": [] },
{ "id": 11, "name": "Green Room","north":7, "objects": [] }
]
}